{
  "http://localhost:8080/gadgets/files/samplecontainer/examples/oauth.xml" : {
    "" : {
      "consumer_key" : "gadgetConsumer",
      "consumer_secret" : "gadgetSecret",
      "key_type" : "HMAC_SYMMETRIC"
    }
  }
}
